{
  "MONGO_URL": "mongodb+srv://zak:3dm.T0wN@edm1-vzc27.gcp.mongodb.net/test?retryWrites=true&w=majority",
  "HOST": "EDM1-shard-0/edm1-shard-00-00-vzc27.gcp.mongodb.net:27017,edm1-shard-00-01-vzc27.gcp.mongodb.net:27017,edm1-shard-00-02-vzc27.gcp.mongodb.net:27017",
  "DB": "test",
  "USER": "zak",
  "PASS": "3dm.T0wN"
}
